Autoget output	Mar attribute	Info/example
checkm_strain_heterogeneity	gen:strain_heterogeneity	
checkm_contamination	gen:contamination	
checkm_completeness	gen:completeness	
gtdb_classification	tax:gtdb_classification	
gtdb_fastani_reference	tax:fastani_ref	
gtdb_fastani_ani	tax:fastani_ani	
trnas_unique	gen:unique_trnas	
trnas_total	gen:total_trnas	
5s	gen:rrnas	Concatenate as first element in list of: 5s, 16s, 23s
16s	gen:rrnas	Concatenate as second element in list of: 5s, 16s, 23s
23s	gen:rrnas	Concatenate as third element in list of: 5s, 16s, 23s
gc	gen:gc_content	
n50	gen:n50	
num_seqs	gen:contigs	
sum_length	gen:length	
cds	gen:cds	
