{
  "_id" : "2022-03-29",
  "name" : "SalDB",
  "description" : "Highly curated database gathering contextual data related to SalDB samples.",
  "contextUrl" : "https://mmp2.sfb.uit.no/saldb/",
  "dmp" : "",
  "schema" : "",
  "latestOnly" : false,
  "releaseFromExternal" : false,
  "grantReadAccess" : "anonymous",
  "header" : "header",
  "valueSeparator" : "\t",
  "subValueSeparator" : "|",
  "tableAttributes" : [ "id", "acc:assembly_genbank", "gen:qs", "isol:env_biome", "isol:env_material", "isol:loc_lineage", "tax:organism", "tax:strain", "proj:genome_status" ],
  "tabs" : [ {
    "name" : "Overview",
    "category" : "",
    "attrs" : [ "id", "acc:bioproject", "acc:biosample", "acc:genbank", "annotation:provider", "host:species", "isol:investigation_type", "isol:sample_type", "isol:collection_date", "isol:loc_lineage", "isol:env_package", "isol:ref_biomaterial", "isol:project_name", "tax:gtdb_classification", "proj:genome_status", "proj:publication" ]
  }, {
    "name" : "Annotation",
    "category" : "",
    "attrs" : [ "acc:refseq", "annotation:provider", "annotation:date", "annotation:sw", "annotation:features", "gen:refseq_cds", "gen:genes", "gen:pseudo_genes", "gen:rrnas", "gen:complete_rrnas", "gen:partial_rrnas", "gen:total_trnas", "gen:unique_trnas", "gen:ncrna", "gen:frameshifted_genes" ]
  }, {
    "name" : "Assembly",
    "category" : "",
    "attrs" : [ "acc:assembly_genbank", "acc:assembly_refseq", "gen:qs", "gen:cds", "gen:gc_content", "gen:contigs", "gen:n50", "gen:num_replicons", "gen:length", "gen:plasmids", "gen:completeness", "gen:contamination", "gen:strain_heterogeneity", "seq:center", "seq:method", "seq:depth", "asmbl:sw", "bin:sw", "map:sw", "quality:sw" ]
  }, {
    "name" : "Host and pathogenicity",
    "category" : "",
    "attrs" : [ "host:species", "host:sex", "host:health_stage", "host:age", "host:pathogenicity", "host:disease", "host:sample_site", "host:sample_subsite", "host:other_clinical" ]
  }, {
    "name" : "Isolate",
    "category" : "",
    "attrs" : [ "acc:biosample", "isol:env_biome", "isol:env_material", "isol:investigation_type", "isol:sample_type", "isol:isolation_source", "isol:collection_date", "isol:alt_elev", "isol:depth", "isol:env_salinity", "isol:env_temp", "isol:lat_lon", "isol:location", "isol:country", "isol:world_region", "isol:env_feature", "isol:env_package", "isol:growth_condt", "isol:ref_biomaterial", "isol:culture_collection", "isol:collected_by", "isol:isolation_comments", "isol:project_name", "isol:analysis_project_type" ]
  }, {
    "name" : "Organism and taxon",
    "category" : "",
    "attrs" : [ "tax:organism", "tax:strain", "tax:ncbi", "tax:gtdb_classification", "tax:sw", "tax:fastani_ref", "tax:fastani_ani" ]
  }, {
    "name" : "Phenotype",
    "category" : "",
    "attrs" : [ "pheno:gram_stain", "pheno:cell_shape", "pheno:motility", "pheno:sporulation", "pheno:temp_range", "pheno:optimal_temp", "pheno:halotolerance", "pheno:oxygen_requirement", "pheno:biovar", "pheno:serovar", "pheno:pathovar", "pheno:other_typing", "pheno:type_strain" ]
  }, {
    "name" : "Secondary metabolites",
    "category" : "",
    "attrs" : [ "secmet:antismash_types", "secmet:antismash_clusters", "secmet:sw" ]
  }, {
    "name" : "Project",
    "category" : "",
    "attrs" : [ "acc:bioproject", "acc:genbank", "acc:bacdive", "isol:env_package", "proj:genome_status", "proj:silva_accession_SSU", "proj:silva_accession_LSU", "proj:uniprot_proteome_id", "proj:publication", "proj:comments", "asmbl:sequences" ]
  }, {
    "name" : "Record metadata",
    "category" : "",
    "attrs" : [ "_time:creation_date", "_time:update_date", "_time:implementation_date", "_time:release_version" ]
  } ],
  "attrs" : [ {
    "ref" : "_intern:loc_name_raw",
    "name" : "Raw location name",
    "alternateNames" : [ ],
    "descr" : "Scratch attribute for curator's use.",
    "suffix" : "",
    "resolvers" : [ ],
    "forceResolver" : false,
    "type" : "",
    "forceType" : false,
    "virtual" : false,
    "hidden" : true,
    "automatic" : false,
    "sticky" : false
  }, {
    "ref" : "_time:creation_date",
    "name" : "Creation date",
    "alternateNames" : [ ],
    "descr" : "Date of entry creation (entry curated and initial insertion into the dataset).",
    "suffix" : "",
    "resolvers" : [ ],
    "forceResolver" : false,
    "type" : "date",
    "forceType" : true,
    "virtual" : false,
    "hidden" : false,
    "automatic" : true,
    "sticky" : false
  }, {
    "ref" : "_time:implementation_date",
    "name" : "Implementation date",
    "alternateNames" : [ ],
    "descr" : "Date at which the metadata for this entry were collected from primary databases.",
    "suffix" : "",
    "resolvers" : [ ],
    "forceResolver" : false,
    "type" : "date",
    "forceType" : true,
    "virtual" : false,
    "hidden" : false,
    "automatic" : true,
    "sticky" : false
  }, {
    "ref" : "_time:release_version",
    "name" : "Release version",
    "alternateNames" : [ ],
    "descr" : "Dataset version this entry appeared for the first time.",
    "suffix" : "",
    "resolvers" : [ ],
    "forceResolver" : false,
    "type" : "cat:semver",
    "forceType" : true,
    "virtual" : false,
    "hidden" : false,
    "automatic" : true,
    "sticky" : false
  }, {
    "ref" : "_time:update_date",
    "name" : "Update date",
    "alternateNames" : [ ],
    "descr" : "Latest entry update date.",
    "suffix" : "",
    "resolvers" : [ ],
    "forceResolver" : false,
    "type" : "date",
    "forceType" : false,
    "virtual" : false,
    "hidden" : false,
    "automatic" : true,
    "sticky" : false
  }, {
    "ref" : "acc:assembly_genbank",
    "name" : "ENA Assembly accession",
    "alternateNames" : [ ],
    "descr" : "Accession of the entry in NCBI/ENA Assembly.",
    "suffix" : "",
    "resolvers" : [ "insdc.gca" ],
    "forceResolver" : true,
    "type" : "acc",
    "forceType" : true,
    "virtual" : false,
    "hidden" : false,
    "automatic" : false,
    "sticky" : false
  }, {
    "ref" : "acc:assembly_refseq",
    "name" : "RefSeq Assembly accession",
    "alternateNames" : [ ],
    "descr" : "Accession of the entry in NCBI RefSeq Assembly.",
    "suffix" : "",
    "resolvers" : [ "ncbi.assembly" ],
    "forceResolver" : true,
    "type" : "acc",
    "forceType" : false,
    "virtual" : false,
    "hidden" : false,
    "automatic" : false,
    "sticky" : false
  }, {
    "ref" : "acc:bacdive",
    "name" : "BacDive accession",
    "alternateNames" : [ ],
    "descr" : "Accession of the entry in BacDive meta-database.",
    "suffix" : "",
    "resolvers" : [ "bacdive" ],
    "forceResolver" : true,
    "type" : "acc",
    "forceType" : false,
    "virtual" : false,
    "hidden" : false,
    "automatic" : false,
    "sticky" : false
  }, {
    "ref" : "acc:bioproject",
    "name" : "ENA BioProject accession",
    "alternateNames" : [ ],
    "descr" : "Accession of the entry in NCBI/ENA BioProject.",
    "suffix" : "",
    "resolvers" : [ "bioproject" ],
    "forceResolver" : true,
    "type" : "acc",
    "forceType" : false,
    "virtual" : false,
    "hidden" : false,
    "automatic" : false,
    "sticky" : false
  }, {
    "ref" : "acc:biosample",
    "name" : "ENA BioSample accession",
    "alternateNames" : [ ],
    "descr" : "The given accession number of the entry in NCBI/ENA BioSample.",
    "suffix" : "",
    "resolvers" : [ "biosample" ],
    "forceResolver" : true,
    "type" : "acc",
    "forceType" : false,
    "virtual" : false,
    "hidden" : false,
    "automatic" : false,
    "sticky" : false
  }, {
    "ref" : "acc:genbank",
    "name" : "GenBank sequence accession",
    "alternateNames" : [ ],
    "descr" : "Accession(s) of the entry in NCBI/ENA GenBank.",
    "suffix" : "",
    "resolvers" : [ "ena.embl", "ncbi.assembly" ],
    "forceResolver" : true,
    "type" : "acc",
    "forceType" : false,
    "virtual" : false,
    "hidden" : false,
    "automatic" : false,
    "sticky" : false
  }, {
    "ref" : "acc:refseq",
    "name" : "NCBI Refseq accession",
    "alternateNames" : [ ],
    "descr" : "Accession of the entry in NCBI RefSeq.",
    "suffix" : "",
    "resolvers" : [ "ncbi.nuccore" ],
    "forceResolver" : true,
    "type" : "acc",
    "forceType" : false,
    "virtual" : false,
    "hidden" : false,
    "automatic" : false,
    "sticky" : false
  }, {
    "ref" : "annotation:date",
    "name" : "Annotation date",
    "alternateNames" : [ ],
    "descr" : "Date when the annotation was preformed.",
    "suffix" : "",
    "resolvers" : [ ],
    "forceResolver" : false,
    "type" : "date",
    "forceType" : false,
    "virtual" : false,
    "hidden" : false,
    "automatic" : false,
    "sticky" : false
  }, {
    "ref" : "annotation:features",
    "name" : "Features annotated",
    "alternateNames" : [ ],
    "descr" : "Which types of features are included in the annotation.",
    "suffix" : "",
    "resolvers" : [ ],
    "forceResolver" : false,
    "type" : "",
    "forceType" : false,
    "virtual" : false,
    "hidden" : false,
    "automatic" : false,
    "sticky" : false
  }, {
    "ref" : "annotation:provider",
    "name" : "Annotation provider",
    "alternateNames" : [ ],
    "descr" : "Organisation providing the annotation.",
    "suffix" : "",
    "resolvers" : [ ],
    "forceResolver" : false,
    "type" : "cat",
    "forceType" : false,
    "virtual" : false,
    "hidden" : false,
    "automatic" : false,
    "sticky" : false
  }, {
    "ref" : "annotation:sw",
    "name" : "Annotation software",
    "alternateNames" : [ ],
    "descr" : "Annotation program(s) that were used in the assembly pipeline.",
    "suffix" : "",
    "resolvers" : [ "biotools" ],
    "forceResolver" : false,
    "template" : "{annotation:sw_name}§{annotation:sw_name@_iri} > {annotation:sw_release}",
    "type" : "",
    "forceType" : false,
    "virtual" : true,
    "hidden" : false,
    "automatic" : false,
    "sticky" : false
  }, {
    "ref" : "annotation:sw_name",
    "name" : "Annotation software name",
    "alternateNames" : [ ],
    "descr" : "Databases and tools integrated in the assembly pipeline.",
    "suffix" : "",
    "resolvers" : [ "biotools" ],
    "forceResolver" : false,
    "type" : "cat",
    "forceType" : false,
    "virtual" : false,
    "hidden" : false,
    "automatic" : false,
    "sticky" : false
  }, {
    "ref" : "annotation:sw_release",
    "name" : "Annotation software revision",
    "alternateNames" : [ ],
    "descr" : "Annotation software(s) version.",
    "suffix" : "",
    "resolvers" : [ ],
    "forceResolver" : false,
    "type" : "",
    "forceType" : false,
    "virtual" : false,
    "hidden" : false,
    "automatic" : false,
    "sticky" : false
  }, {
    "ref" : "asmbl:sequences",
    "name" : "Sequence data",
    "alternateNames" : [ ],
    "descr" : "Link to sequence data (FASTA, CDS, ....)",
    "suffix" : "",
    "resolvers" : [ "resource_sequence" ],
    "forceResolver" : false,
    "template" : "{acc:assembly_genbank@_key}",
    "type" : "",
    "forceType" : false,
    "virtual" : false,
    "hidden" : false,
    "automatic" : false,
    "sticky" : false
  }, {
    "ref" : "asmbl:sw",
    "name" : "Assembly software",
    "alternateNames" : [ ],
    "descr" : "Assembly program(s) that were used to generate contigs or scaffolds.",
    "suffix" : "",
    "resolvers" : [ "biotools" ],
    "forceResolver" : false,
    "template" : "{asmbl:sw_name}§{asmbl:sw_name@_iri} > {asmbl:sw_release}",
    "type" : "",
    "forceType" : false,
    "virtual" : true,
    "hidden" : false,
    "automatic" : false,
    "sticky" : false
  }, {
    "ref" : "asmbl:sw_name",
    "name" : "Assembly tools",
    "alternateNames" : [ ],
    "descr" : "Assembly program(s) that were used to generate the contigs or scaffolds.",
    "suffix" : "",
    "resolvers" : [ "biotools" ],
    "forceResolver" : false,
    "type" : "cat",
    "forceType" : false,
    "virtual" : false,
    "hidden" : false,
    "automatic" : false,
    "sticky" : false
  }, {
    "ref" : "asmbl:sw_release",
    "name" : "Assembly tool version",
    "alternateNames" : [ ],
    "descr" : "Version(s) of the assembly program used.",
    "suffix" : "",
    "resolvers" : [ ],
    "forceResolver" : false,
    "type" : "",
    "forceType" : false,
    "virtual" : false,
    "hidden" : false,
    "automatic" : false,
    "sticky" : false
  }, {
    "ref" : "bin:sw",
    "name" : "Binning software",
    "alternateNames" : [ ],
    "descr" : "Binning program(s) that were used.",
    "suffix" : "",
    "resolvers" : [ "biotools" ],
    "forceResolver" : false,
    "template" : "{bin:sw_name}§{bin:sw_name@_iri} > {bin:sw_release}",
    "type" : "",
    "forceType" : false,
    "virtual" : true,
    "hidden" : false,
    "automatic" : false,
    "sticky" : false
  }, {
    "ref" : "bin:sw_name",
    "name" : "Binning tool",
    "alternateNames" : [ ],
    "descr" : "Binning tool used.",
    "suffix" : "",
    "resolvers" : [ "biotools" ],
    "forceResolver" : false,
    "type" : "cat",
    "forceType" : false,
    "virtual" : false,
    "hidden" : false,
    "automatic" : false,
    "sticky" : false
  }, {
    "ref" : "bin:sw_release",
    "name" : "Binning tool version",
    "alternateNames" : [ ],
    "descr" : "Binning tool version.",
    "suffix" : "",
    "resolvers" : [ ],
    "forceResolver" : false,
    "type" : "",
    "forceType" : false,
    "virtual" : false,
    "hidden" : false,
    "automatic" : false,
    "sticky" : false
  }, {
    "ref" : "gen:cds",
    "name" : "CDS",
    "alternateNames" : [ ],
    "descr" : "Number of annotated CDS.",
    "suffix" : "",
    "resolvers" : [ ],
    "forceResolver" : false,
    "type" : "num",
    "forceType" : false,
    "virtual" : false,
    "hidden" : false,
    "automatic" : false,
    "sticky" : false
  }, {
    "ref" : "gen:complete_rrnas",
    "name" : "Complete rRNAs (5S, 16S, 23S)",
    "alternateNames" : [ ],
    "descr" : "Number of complete 5S, 16S and 23S predicted.",
    "suffix" : "",
    "resolvers" : [ ],
    "forceResolver" : false,
    "type" : "",
    "forceType" : false,
    "virtual" : false,
    "hidden" : false,
    "automatic" : false,
    "sticky" : false
  }, {
    "ref" : "gen:completeness",
    "name" : "Estimated completeness",
    "alternateNames" : [ ],
    "descr" : "Estimated completeness for the given genome of the sample against references.",
    "suffix" : "%",
    "resolvers" : [ ],
    "forceResolver" : false,
    "type" : "num",
    "forceType" : false,
    "virtual" : false,
    "hidden" : false,
    "automatic" : false,
    "sticky" : false
  }, {
    "ref" : "gen:contamination",
    "name" : "Estimated contamination",
    "alternateNames" : [ ],
    "descr" : "Estimated contamination for the given genome of the sample.",
    "suffix" : "%",
    "resolvers" : [ ],
    "forceResolver" : false,
    "type" : "num",
    "forceType" : false,
    "virtual" : false,
    "hidden" : false,
    "automatic" : false,
    "sticky" : false
  }, {
    "ref" : "gen:contigs",
    "name" : "Contigs",
    "alternateNames" : [ ],
    "descr" : "Number of assembled contigs or scaffolds the sequenced sample comprise.",
    "suffix" : "",
    "resolvers" : [ ],
    "forceResolver" : false,
    "type" : "num",
    "forceType" : false,
    "virtual" : false,
    "hidden" : false,
    "automatic" : false,
    "sticky" : false
  }, {
    "ref" : "gen:frameshifted_genes",
    "name" : "Frameshift genes",
    "alternateNames" : [ ],
    "descr" : "Number of annotated frameshift genes.",
    "suffix" : "",
    "resolvers" : [ ],
    "forceResolver" : false,
    "type" : "num",
    "forceType" : false,
    "virtual" : false,
    "hidden" : false,
    "automatic" : false,
    "sticky" : false
  }, {
    "ref" : "gen:gc_content",
    "name" : "GC content",
    "alternateNames" : [ ],
    "descr" : "Percentage of nitrogenous bases in the genome that are either guanine (G) or cytosine (C).",
    "suffix" : "%",
    "resolvers" : [ ],
    "forceResolver" : false,
    "type" : "num",
    "forceType" : false,
    "virtual" : false,
    "hidden" : false,
    "automatic" : false,
    "sticky" : false
  }, {
    "ref" : "gen:genes",
    "name" : "Genes",
    "alternateNames" : [ ],
    "descr" : "Number of annotated genes.",
    "suffix" : "",
    "resolvers" : [ ],
    "forceResolver" : false,
    "type" : "num",
    "forceType" : false,
    "virtual" : false,
    "hidden" : false,
    "automatic" : false,
    "sticky" : false
  }, {
    "ref" : "gen:length",
    "name" : "Genome length",
    "alternateNames" : [ ],
    "descr" : "Genomic length for the complete assembly.",
    "suffix" : "bp",
    "resolvers" : [ ],
    "forceResolver" : false,
    "type" : "num",
    "forceType" : false,
    "virtual" : false,
    "hidden" : false,
    "automatic" : false,
    "sticky" : false
  }, {
    "ref" : "gen:n50",
    "name" : "N50",
    "alternateNames" : [ ],
    "descr" : "Minimum contig length needed to cover 50% of the genome.",
    "suffix" : "",
    "resolvers" : [ ],
    "forceResolver" : false,
    "type" : "num",
    "forceType" : false,
    "virtual" : false,
    "hidden" : false,
    "automatic" : false,
    "sticky" : false
  }, {
    "ref" : "gen:ncrna",
    "name" : "ncRNA",
    "alternateNames" : [ ],
    "descr" : "Number of annotated ncRNAs.",
    "suffix" : "",
    "resolvers" : [ ],
    "forceResolver" : false,
    "type" : "num",
    "forceType" : false,
    "virtual" : false,
    "hidden" : false,
    "automatic" : false,
    "sticky" : false
  }, {
    "ref" : "gen:num_replicons",
    "name" : "Number of replicons",
    "alternateNames" : [ ],
    "descr" : "Number of replicons in a nuclear genome of eukaryotes, the genome of a bacterium or archaea, or the number of segments in a segmented virus.",
    "suffix" : "",
    "resolvers" : [ ],
    "forceResolver" : false,
    "type" : "num",
    "forceType" : false,
    "virtual" : false,
    "hidden" : false,
    "automatic" : false,
    "sticky" : false
  }, {
    "ref" : "gen:partial_rrnas",
    "name" : "Partial rRNAs (5S, 16S, 23S)",
    "alternateNames" : [ ],
    "descr" : "Number of partial 5S, 16S and 23S predicted.",
    "suffix" : "",
    "resolvers" : [ ],
    "forceResolver" : false,
    "type" : "",
    "forceType" : false,
    "virtual" : false,
    "hidden" : false,
    "automatic" : false,
    "sticky" : false
  }, {
    "ref" : "gen:plasmids",
    "name" : "Plasmids",
    "alternateNames" : [ ],
    "descr" : "Number of plasmids known for the given sample.",
    "suffix" : "",
    "resolvers" : [ ],
    "forceResolver" : false,
    "type" : "num",
    "forceType" : false,
    "virtual" : false,
    "hidden" : false,
    "automatic" : false,
    "sticky" : false
  }, {
    "ref" : "gen:pseudo_genes",
    "name" : "Pseudogenes",
    "alternateNames" : [ ],
    "descr" : "Number of annotated pseudogenes.",
    "suffix" : "",
    "resolvers" : [ ],
    "forceResolver" : false,
    "type" : "num",
    "forceType" : false,
    "virtual" : false,
    "hidden" : false,
    "automatic" : false,
    "sticky" : false
  }, {
    "ref" : "gen:qs",
    "name" : "Quality score",
    "alternateNames" : [ ],
    "descr" : "Quality score (typically between -1500.00 tand +100.00).",
    "suffix" : "",
    "resolvers" : [ ],
    "forceResolver" : false,
    "type" : "num",
    "forceType" : false,
    "virtual" : false,
    "hidden" : false,
    "automatic" : false,
    "sticky" : false
  }, {
    "ref" : "gen:refseq_cds",
    "name" : "Refseq CDS",
    "alternateNames" : [ ],
    "descr" : "Number of CDS predicted by the RefSeq PGAAP pipeline. (0 = missing)",
    "suffix" : "",
    "resolvers" : [ ],
    "forceResolver" : false,
    "type" : "num",
    "forceType" : false,
    "virtual" : false,
    "hidden" : false,
    "automatic" : false,
    "sticky" : false
  }, {
    "ref" : "gen:rrnas",
    "name" : "rRNAs (5S, 16S, 23S)",
    "alternateNames" : [ ],
    "descr" : "Total number of 5S, 16S and 23S predicted.",
    "suffix" : "",
    "resolvers" : [ ],
    "forceResolver" : false,
    "type" : "",
    "forceType" : false,
    "virtual" : false,
    "hidden" : false,
    "automatic" : false,
    "sticky" : false
  }, {
    "ref" : "gen:strain_heterogeneity",
    "name" : "Strain heterogeneity",
    "alternateNames" : [ ],
    "descr" : "Strain heterogeneity is an index between 0 (no strain heterogeneity) and 100 (all markers present).",
    "suffix" : "",
    "resolvers" : [ ],
    "forceResolver" : false,
    "type" : "num",
    "forceType" : false,
    "virtual" : false,
    "hidden" : false,
    "automatic" : false,
    "sticky" : false
  }, {
    "ref" : "gen:total_trnas",
    "name" : "Total tRNAs",
    "alternateNames" : [ ],
    "descr" : "Total number of predicted tRNAs.",
    "suffix" : "",
    "resolvers" : [ ],
    "forceResolver" : false,
    "type" : "num",
    "forceType" : false,
    "virtual" : false,
    "hidden" : false,
    "automatic" : false,
    "sticky" : false
  }, {
    "ref" : "gen:unique_trnas",
    "name" : "Unique tRNAs",
    "alternateNames" : [ ],
    "descr" : "Number of tRNAs corresponding to unique amino acids.",
    "suffix" : "",
    "resolvers" : [ ],
    "forceResolver" : false,
    "type" : "num",
    "forceType" : false,
    "virtual" : false,
    "hidden" : false,
    "automatic" : false,
    "sticky" : false
  }, {
    "ref" : "header",
    "name" : "Record header",
    "alternateNames" : [ ],
    "descr" : "Organism -- Strain (MMP identifier)",
    "suffix" : "",
    "resolvers" : [ ],
    "forceResolver" : false,
    "template" : "{tax:organism} -- {tax:strain} ({id})",
    "type" : "",
    "forceType" : false,
    "virtual" : true,
    "hidden" : false,
    "automatic" : false,
    "sticky" : false
  }, {
    "ref" : "host:age",
    "name" : "Host age",
    "alternateNames" : [ ],
    "descr" : "Age of host at the time of sampling.",
    "suffix" : "",
    "resolvers" : [ ],
    "forceResolver" : false,
    "type" : "",
    "forceType" : false,
    "virtual" : false,
    "hidden" : false,
    "automatic" : false,
    "sticky" : false
  }, {
    "ref" : "host:disease",
    "name" : "Disease",
    "alternateNames" : [ ],
    "descr" : "Relevant disease related to the sample.",
    "suffix" : "",
    "resolvers" : [ ],
    "forceResolver" : false,
    "type" : "cat",
    "forceType" : false,
    "virtual" : false,
    "hidden" : false,
    "automatic" : false,
    "sticky" : false
  }, {
    "ref" : "host:health_stage",
    "name" : "Host health",
    "alternateNames" : [ ],
    "descr" : "Health state of host.",
    "suffix" : "",
    "resolvers" : [ ],
    "forceResolver" : false,
    "type" : "cat",
    "forceType" : false,
    "virtual" : false,
    "hidden" : false,
    "automatic" : false,
    "sticky" : false
  }, {
    "ref" : "host:other_clinical",
    "name" : "Other clinical",
    "alternateNames" : [ ],
    "descr" : "Any other clinical aspects related to the sample.",
    "suffix" : "",
    "resolvers" : [ ],
    "forceResolver" : false,
    "type" : "cat",
    "forceType" : false,
    "virtual" : false,
    "hidden" : false,
    "automatic" : false,
    "sticky" : false
  }, {
    "ref" : "host:pathogenicity",
    "name" : "Known pathogenicity",
    "alternateNames" : [ ],
    "descr" : "To what is the entity pathogenic. Ex: human, animal, plant, fungi, bacteria.",
    "suffix" : "",
    "resolvers" : [ ],
    "forceResolver" : false,
    "type" : "cat",
    "forceType" : false,
    "virtual" : false,
    "hidden" : false,
    "automatic" : false,
    "sticky" : false
  }, {
    "ref" : "host:sample_site",
    "name" : "Body sample site",
    "alternateNames" : [ ],
    "descr" : "Body sample site.",
    "suffix" : "",
    "resolvers" : [ ],
    "forceResolver" : false,
    "type" : "cat",
    "forceType" : false,
    "virtual" : false,
    "hidden" : false,
    "automatic" : false,
    "sticky" : false
  }, {
    "ref" : "host:sample_subsite",
    "name" : "Body sample subsite",
    "alternateNames" : [ ],
    "descr" : "Name or description of the subsite of the sample site.",
    "suffix" : "",
    "resolvers" : [ ],
    "forceResolver" : false,
    "type" : "cat",
    "forceType" : false,
    "virtual" : false,
    "hidden" : false,
    "automatic" : false,
    "sticky" : false
  }, {
    "ref" : "host:sex",
    "name" : "Host sex",
    "alternateNames" : [ ],
    "descr" : "Physical sex of the host.",
    "suffix" : "",
    "resolvers" : [ ],
    "forceResolver" : false,
    "type" : "cat:enum:sex",
    "forceType" : false,
    "virtual" : false,
    "hidden" : false,
    "automatic" : false,
    "sticky" : false
  }, {
    "ref" : "host:species",
    "name" : "Host",
    "alternateNames" : [ ],
    "descr" : "Natural (as opposed to laboratory) host to the organism from which the sample was obtained.",
    "suffix" : "",
    "resolvers" : [ ],
    "forceResolver" : false,
    "type" : "cat",
    "forceType" : false,
    "virtual" : false,
    "hidden" : false,
    "automatic" : false,
    "sticky" : false
  }, {
    "ref" : "id",
    "name" : "MMP accession",
    "alternateNames" : [ ],
    "descr" : "MMP unique identifier",
    "suffix" : "",
    "resolvers" : [ "mmp.saldb" ],
    "forceResolver" : true,
    "template" : "mmp.saldb:MMP{acc:biosample@raw_id}",
    "type" : "acc",
    "forceType" : true,
    "virtual" : false,
    "hidden" : false,
    "automatic" : true,
    "sticky" : false
  }, {
    "ref" : "isol:alt_elev",
    "name" : "Geographic altitude",
    "alternateNames" : [ ],
    "descr" : "Elevation above sea level the sample was taken.",
    "suffix" : "m",
    "resolvers" : [ ],
    "forceResolver" : false,
    "type" : "num",
    "forceType" : false,
    "virtual" : false,
    "hidden" : false,
    "automatic" : false,
    "sticky" : false
  }, {
    "ref" : "isol:analysis_project_type",
    "name" : "Analysis project type",
    "alternateNames" : [ ],
    "descr" : "Sequencing source-type the project originates from.",
    "suffix" : "",
    "resolvers" : [ ],
    "forceResolver" : false,
    "type" : "cat:enum:analysis_proj_type",
    "forceType" : false,
    "virtual" : false,
    "hidden" : false,
    "automatic" : false,
    "sticky" : false
  }, {
    "ref" : "isol:collected_by",
    "name" : "Collected by",
    "alternateNames" : [ ],
    "descr" : "Name(s) of persons or institute who collected the sample.",
    "suffix" : "",
    "resolvers" : [ ],
    "forceResolver" : false,
    "type" : "",
    "forceType" : false,
    "virtual" : false,
    "hidden" : false,
    "automatic" : false,
    "sticky" : false
  }, {
    "ref" : "isol:collection_date",
    "name" : "Collection date",
    "alternateNames" : [ ],
    "descr" : "Sampling date.",
    "suffix" : "",
    "resolvers" : [ ],
    "forceResolver" : false,
    "type" : "date",
    "forceType" : false,
    "virtual" : false,
    "hidden" : false,
    "automatic" : false,
    "sticky" : false
  }, {
    "ref" : "isol:country",
    "name" : "Isolation country",
    "alternateNames" : [ ],
    "descr" : "Country in which the sample was collected.",
    "suffix" : "",
    "resolvers" : [ "gaz" ],
    "forceResolver" : false,
    "template" : "{isol:location@country}<ECO:0000313>{isol:location@_id}",
    "type" : "cat:geo:world",
    "forceType" : false,
    "virtual" : false,
    "hidden" : false,
    "automatic" : false,
    "sticky" : false
  }, {
    "ref" : "isol:culture_collection",
    "name" : "Culture collection",
    "alternateNames" : [ ],
    "descr" : "Name of source institute and unique culture identifier.",
    "suffix" : "",
    "resolvers" : [ ],
    "forceResolver" : false,
    "type" : "",
    "forceType" : false,
    "virtual" : false,
    "hidden" : false,
    "automatic" : false,
    "sticky" : false
  }, {
    "ref" : "isol:depth",
    "name" : "Depth",
    "alternateNames" : [ ],
    "descr" : "Depth below sea level the sample was taken.",
    "suffix" : "m",
    "resolvers" : [ ],
    "forceResolver" : false,
    "type" : "num",
    "forceType" : false,
    "virtual" : false,
    "hidden" : false,
    "automatic" : false,
    "sticky" : false
  }, {
    "ref" : "isol:env_biome",
    "name" : "Environment biome",
    "alternateNames" : [ ],
    "descr" : "In environmental biome level are the major classes of ecologically similar communities of plants, animals, and other organisms. Biomes are defined based on factors such as plant structures, leaf types, plant spacing, and other factors like climate. Examples include: desert, taiga, deciduous woodland, or coral reef.",
    "suffix" : "",
    "resolvers" : [ "envo" ],
    "forceResolver" : false,
    "type" : "cat",
    "forceType" : false,
    "virtual" : false,
    "hidden" : false,
    "automatic" : false,
    "sticky" : false
  }, {
    "ref" : "isol:env_feature",
    "name" : "Environment feature",
    "alternateNames" : [ ],
    "descr" : "Environmental feature level includes geographic environmental features.",
    "suffix" : "",
    "resolvers" : [ "envo" ],
    "forceResolver" : false,
    "type" : "cat",
    "forceType" : false,
    "virtual" : false,
    "hidden" : false,
    "automatic" : false,
    "sticky" : false
  }, {
    "ref" : "isol:env_material",
    "name" : "Environment material",
    "alternateNames" : [ ],
    "descr" : "Matter that was displaced by the sample, prior to the sampling event.",
    "suffix" : "",
    "resolvers" : [ "envo" ],
    "forceResolver" : false,
    "type" : "cat",
    "forceType" : false,
    "virtual" : false,
    "hidden" : false,
    "automatic" : false,
    "sticky" : false
  }, {
    "ref" : "isol:env_package",
    "name" : "Environmental package",
    "alternateNames" : [ ],
    "descr" : "MIGS/MIMS/MIMARK extension for reporting of measurements and observations obtained from one or more of the environments where the sample was obtained.",
    "suffix" : "",
    "resolvers" : [ ],
    "forceResolver" : false,
    "type" : "cat:enum:env_package",
    "forceType" : false,
    "virtual" : false,
    "hidden" : false,
    "automatic" : false,
    "sticky" : false
  }, {
    "ref" : "isol:env_salinity",
    "name" : "Environmental salinity",
    "alternateNames" : [ ],
    "descr" : "Salinity measurement, given in practical salinity units (psu).",
    "suffix" : "psu",
    "resolvers" : [ ],
    "forceResolver" : false,
    "type" : "num",
    "forceType" : false,
    "virtual" : false,
    "hidden" : false,
    "automatic" : false,
    "sticky" : false
  }, {
    "ref" : "isol:env_temp",
    "name" : "Environmental temperature",
    "alternateNames" : [ ],
    "descr" : "Temperature in degrees celsius of the sample at time of sampling.",
    "suffix" : "°C",
    "resolvers" : [ ],
    "forceResolver" : false,
    "type" : "num",
    "forceType" : false,
    "virtual" : false,
    "hidden" : false,
    "automatic" : false,
    "sticky" : false
  }, {
    "ref" : "isol:growth_condt",
    "name" : "Isolation and growth condition",
    "alternateNames" : [ ],
    "descr" : "Publication reference for isolation and growth condition specifications of the organism/material.",
    "suffix" : "",
    "resolvers" : [ "doi", "pmid", "pubmed" ],
    "forceResolver" : false,
    "type" : "",
    "forceType" : false,
    "virtual" : false,
    "hidden" : false,
    "automatic" : false,
    "sticky" : false
  }, {
    "ref" : "isol:investigation_type",
    "name" : "Investigation type",
    "alternateNames" : [ ],
    "descr" : "Nucleic Acid Sequence Report is the root element of all MIGS/MIMS compliant reports as standardized by Genomic Standards Consortium.",
    "suffix" : "",
    "resolvers" : [ ],
    "forceResolver" : false,
    "type" : "cat:enum:investigation_type",
    "forceType" : false,
    "virtual" : false,
    "hidden" : false,
    "automatic" : false,
    "sticky" : false
  }, {
    "ref" : "isol:isolation_comments",
    "name" : "Isolation comments",
    "alternateNames" : [ ],
    "descr" : "Comments about the actual sampling of the specimen. May be notes, comments as well as excerpts from the publication.",
    "suffix" : "",
    "resolvers" : [ ],
    "forceResolver" : false,
    "type" : "",
    "forceType" : false,
    "virtual" : false,
    "hidden" : false,
    "automatic" : false,
    "sticky" : false
  }, {
    "ref" : "isol:isolation_source",
    "name" : "Isolation source",
    "alternateNames" : [ ],
    "descr" : "Physical, environmental and/or local geographical source of the biological sample.",
    "suffix" : "",
    "resolvers" : [ ],
    "forceResolver" : false,
    "type" : "cat",
    "forceType" : false,
    "virtual" : false,
    "hidden" : false,
    "automatic" : false,
    "sticky" : false
  }, {
    "ref" : "isol:lat_lon",
    "name" : "Geographic coordinates",
    "alternateNames" : [ ],
    "descr" : "Geographic coordinates of the origin of the sample expressed in decimal degrees (DD).",
    "suffix" : "",
    "resolvers" : [ "gmap" ],
    "forceResolver" : false,
    "type" : "latlon",
    "forceType" : false,
    "virtual" : false,
    "hidden" : false,
    "automatic" : false,
    "sticky" : false
  }, {
    "ref" : "isol:loc_lineage",
    "name" : "Geographic location",
    "alternateNames" : [ ],
    "descr" : "Geographical origin of the sample given as the triplet world region > country > location",
    "suffix" : "",
    "resolvers" : [ ],
    "forceResolver" : false,
    "template" : "{isol:world_region}§{isol:world_region@_iri} > {isol:country}§{isol:country@_iri} > {isol:location}§{isol:location@_iri}",
    "type" : "",
    "forceType" : false,
    "virtual" : true,
    "hidden" : false,
    "automatic" : false,
    "sticky" : false
  }, {
    "ref" : "isol:location",
    "name" : "Isolation location",
    "alternateNames" : [ ],
    "descr" : "Geographical origin of the sample.",
    "suffix" : "",
    "resolvers" : [ "gaz", "mrgid" ],
    "forceResolver" : false,
    "type" : "acc",
    "forceType" : false,
    "virtual" : false,
    "hidden" : false,
    "automatic" : false,
    "sticky" : false
  }, {
    "ref" : "isol:project_name",
    "name" : "Project name",
    "alternateNames" : [ ],
    "descr" : "Name of the project in which the sequencing was organized.",
    "suffix" : "",
    "resolvers" : [ ],
    "forceResolver" : false,
    "type" : "",
    "forceType" : false,
    "virtual" : false,
    "hidden" : false,
    "automatic" : false,
    "sticky" : false
  }, {
    "ref" : "isol:ref_biomaterial",
    "name" : "Reference for biomaterial",
    "alternateNames" : [ ],
    "descr" : "Primary publication(s) of isolate.",
    "suffix" : "",
    "resolvers" : [ "doi", "pmid", "pubmed" ],
    "forceResolver" : false,
    "type" : "",
    "forceType" : false,
    "virtual" : false,
    "hidden" : false,
    "automatic" : false,
    "sticky" : false
  }, {
    "ref" : "isol:sample_type",
    "name" : "Sample type",
    "alternateNames" : [ ],
    "descr" : "Sample type, such as cell culture, mixed culture, tissue sample, whole organism, single cell, metagenomic sample.",
    "suffix" : "",
    "resolvers" : [ ],
    "forceResolver" : false,
    "type" : "cat",
    "forceType" : false,
    "virtual" : false,
    "hidden" : false,
    "automatic" : false,
    "sticky" : false
  }, {
    "ref" : "isol:world_region",
    "name" : "Isolation world region",
    "alternateNames" : [ ],
    "descr" : "World region in which the sample was collected.",
    "suffix" : "",
    "resolvers" : [ "gaz" ],
    "forceResolver" : false,
    "template" : "{isol:location@world_region}<ECO:0000313>{isol:location@_id}",
    "type" : "cat",
    "forceType" : false,
    "virtual" : false,
    "hidden" : false,
    "automatic" : false,
    "sticky" : false
  }, {
    "ref" : "map:sw",
    "name" : "Mapping software",
    "alternateNames" : [ ],
    "descr" : "Mapping program(s) that were used for mapping the genome.",
    "suffix" : "",
    "resolvers" : [ "biotools" ],
    "forceResolver" : false,
    "template" : "{map:sw_name}§{map:sw_name@_iri} > {map:sw_release}",
    "type" : "",
    "forceType" : false,
    "virtual" : true,
    "hidden" : false,
    "automatic" : false,
    "sticky" : false
  }, {
    "ref" : "map:sw_name",
    "name" : "Mapping tool",
    "alternateNames" : [ ],
    "descr" : "Tool used for the mapping of the genome.",
    "suffix" : "",
    "resolvers" : [ "biotools" ],
    "forceResolver" : false,
    "type" : "cat",
    "forceType" : false,
    "virtual" : false,
    "hidden" : false,
    "automatic" : false,
    "sticky" : false
  }, {
    "ref" : "map:sw_release",
    "name" : "Mapping tool version",
    "alternateNames" : [ ],
    "descr" : "Mapping tool version.",
    "suffix" : "",
    "resolvers" : [ ],
    "forceResolver" : false,
    "type" : "",
    "forceType" : false,
    "virtual" : false,
    "hidden" : false,
    "automatic" : false,
    "sticky" : false
  }, {
    "ref" : "pheno:biovar",
    "name" : "Biovar",
    "alternateNames" : [ ],
    "descr" : "A biovar is a variant prokaryotic strain that differs physiologically and/or biochemically from other strains in a particular species.",
    "suffix" : "",
    "resolvers" : [ ],
    "forceResolver" : false,
    "type" : "cat",
    "forceType" : false,
    "virtual" : false,
    "hidden" : false,
    "automatic" : false,
    "sticky" : false
  }, {
    "ref" : "pheno:cell_shape",
    "name" : "Cell shape",
    "alternateNames" : [ ],
    "descr" : "The general shape as observed for the given sample.",
    "suffix" : "",
    "resolvers" : [ ],
    "forceResolver" : false,
    "type" : "cat:enum:cell_shape",
    "forceType" : false,
    "virtual" : false,
    "hidden" : false,
    "automatic" : false,
    "sticky" : false
  }, {
    "ref" : "pheno:gram_stain",
    "name" : "Gram stain",
    "alternateNames" : [ ],
    "descr" : "How the sample reacts to gram staining.",
    "suffix" : "",
    "resolvers" : [ ],
    "forceResolver" : false,
    "type" : "cat:enum:gram_stain",
    "forceType" : false,
    "virtual" : false,
    "hidden" : false,
    "automatic" : false,
    "sticky" : false
  }, {
    "ref" : "pheno:halotolerance",
    "name" : "Halotolerance",
    "alternateNames" : [ ],
    "descr" : "Tolerance to ionic stress. Slight halophiles prefer 0.3 to 0.8 M (1.7 to 4.8% -- seawater is 0.6 M or 3.5%), moderate halophiles 0.8 to 3.4 M (4.7 to 20%), and extreme halophiles 3.4 to 5.1 M (20 to 30%) salt content. Halophiles require sodium chloride (salt) for growth, in contrast to halotolerant organisms, which do not require salt but can grow under saline conditions.",
    "suffix" : "",
    "resolvers" : [ ],
    "forceResolver" : false,
    "type" : "cat:enum:halo_tol",
    "forceType" : false,
    "virtual" : false,
    "hidden" : false,
    "automatic" : false,
    "sticky" : false
  }, {
    "ref" : "pheno:motility",
    "name" : "Motility",
    "alternateNames" : [ ],
    "descr" : "Whether the organism is known to have motility of any sort.",
    "suffix" : "",
    "resolvers" : [ ],
    "forceResolver" : false,
    "type" : "cat:enum:boolean",
    "forceType" : false,
    "virtual" : false,
    "hidden" : false,
    "automatic" : false,
    "sticky" : false
  }, {
    "ref" : "pheno:optimal_temp",
    "name" : "Optimal growth temperature",
    "alternateNames" : [ ],
    "descr" : "The optimum growth temperature of the organism.",
    "suffix" : "°C",
    "resolvers" : [ ],
    "forceResolver" : false,
    "type" : "num",
    "forceType" : false,
    "virtual" : false,
    "hidden" : false,
    "automatic" : false,
    "sticky" : false
  }, {
    "ref" : "pheno:other_typing",
    "name" : "Other typing",
    "alternateNames" : [ ],
    "descr" : "Any other typing not previously given describing the sample.",
    "suffix" : "",
    "resolvers" : [ ],
    "forceResolver" : false,
    "type" : "cat",
    "forceType" : false,
    "virtual" : false,
    "hidden" : false,
    "automatic" : false,
    "sticky" : false
  }, {
    "ref" : "pheno:oxygen_requirement",
    "name" : "Oxygen requirement",
    "alternateNames" : [ ],
    "descr" : "Type of oxygen environment associated with this sample.",
    "suffix" : "",
    "resolvers" : [ ],
    "forceResolver" : false,
    "type" : "cat:enum:oxygen_req",
    "forceType" : false,
    "virtual" : false,
    "hidden" : false,
    "automatic" : false,
    "sticky" : false
  }, {
    "ref" : "pheno:pathovar",
    "name" : "Pathovar",
    "alternateNames" : [ ],
    "descr" : "Taxonomy below subspecies; the term pathovar is used to refer to strains with similar features that are differentiated at the subspecies level on the basis of differences in plant host range and types of symptoms, and additionally by biochemical profiles.",
    "suffix" : "",
    "resolvers" : [ ],
    "forceResolver" : false,
    "type" : "",
    "forceType" : false,
    "virtual" : false,
    "hidden" : false,
    "automatic" : false,
    "sticky" : false
  }, {
    "ref" : "pheno:serovar",
    "name" : "Serovar",
    "alternateNames" : [ ],
    "descr" : "Taxonomy below subspecies; epidemiologic classification of organisms to the subspecies level based on their cell surface antigens. May be sub-classifications below biovar.",
    "suffix" : "",
    "resolvers" : [ ],
    "forceResolver" : false,
    "type" : "",
    "forceType" : false,
    "virtual" : false,
    "hidden" : false,
    "automatic" : false,
    "sticky" : false
  }, {
    "ref" : "pheno:sporulation",
    "name" : "Sporulation",
    "alternateNames" : [ ],
    "descr" : "Whether the organism is known to possess the ability to sporulate.",
    "suffix" : "",
    "resolvers" : [ ],
    "forceResolver" : false,
    "type" : "cat:enum:boolean",
    "forceType" : false,
    "virtual" : false,
    "hidden" : false,
    "automatic" : false,
    "sticky" : false
  }, {
    "ref" : "pheno:temp_range",
    "name" : "Temperature range",
    "alternateNames" : [ ],
    "descr" : "Organism growth temperature tolerance.",
    "suffix" : "",
    "resolvers" : [ ],
    "forceResolver" : false,
    "type" : "cat:enum:temp_range",
    "forceType" : false,
    "virtual" : false,
    "hidden" : false,
    "automatic" : false,
    "sticky" : false
  }, {
    "ref" : "pheno:type_strain",
    "name" : "Type strain",
    "alternateNames" : [ ],
    "descr" : "Type of the first actual strain specimen describing the species.",
    "suffix" : "",
    "resolvers" : [ ],
    "forceResolver" : false,
    "type" : "cat",
    "forceType" : false,
    "virtual" : false,
    "hidden" : false,
    "automatic" : false,
    "sticky" : false
  }, {
    "ref" : "proj:comments",
    "name" : "Comments",
    "alternateNames" : [ ],
    "descr" : "Any comments, notes, resume or abstract regarding the sample or the publication it is mentioned in.",
    "suffix" : "",
    "resolvers" : [ ],
    "forceResolver" : false,
    "type" : "",
    "forceType" : false,
    "virtual" : false,
    "hidden" : false,
    "automatic" : false,
    "sticky" : false
  }, {
    "ref" : "proj:genome_status",
    "name" : "Genome status",
    "alternateNames" : [ ],
    "descr" : "Genome status as defined by: Finished: Single, validated, contiguous sequence per replicon without gaps or ambiguities with a consensus error rate equivalent to Q50 or better. -- High Quality: Multiple fragments where gaps span repetitive regions. Presence of the 23S, 16S and 5S rRNA genes and at least 18 unique tRNAs. Completion > 90% and Contamination < 5% -- Near Complete: Completion > 90% and Contamination < 5%. -- Medium Quality: Many fragments with little to no review of assembly other than reporting of standard assembly statistics. Completion > 50% and Contamination < 10%. -- Low Quality: Many fragments with little to no review of assembly other than reporting of standard assembly statistics. Completion < 50% and Contamination < 10%. -- Very Low Quality: MAR specific definition for assemblies failing to comply with the given tresholds. Completion < 100 and Contamination > 10%.",
    "suffix" : "",
    "resolvers" : [ ],
    "forceResolver" : false,
    "type" : "cat:enum:gen_status",
    "forceType" : false,
    "virtual" : false,
    "hidden" : false,
    "automatic" : false,
    "sticky" : false
  }, {
    "ref" : "proj:publication",
    "name" : "Publications",
    "alternateNames" : [ ],
    "descr" : "Publications referring to the genome data.",
    "suffix" : "",
    "resolvers" : [ "doi", "pmid", "pubmed" ],
    "forceResolver" : false,
    "type" : "",
    "forceType" : false,
    "virtual" : false,
    "hidden" : false,
    "automatic" : false,
    "sticky" : false
  }, {
    "ref" : "proj:silva_accession_LSU",
    "name" : "Silva LSU accession",
    "alternateNames" : [ ],
    "descr" : "Link out to the SILVA Large Subunit rRNA Database (LSU).",
    "suffix" : "",
    "resolvers" : [ "bioproject" ],
    "forceResolver" : false,
    "type" : "",
    "forceType" : false,
    "virtual" : false,
    "hidden" : false,
    "automatic" : false,
    "sticky" : false
  }, {
    "ref" : "proj:silva_accession_SSU",
    "name" : "Silva SSU accession",
    "alternateNames" : [ ],
    "descr" : "Link out to the SILVA Small Subunit rRNA Database (SSU).",
    "suffix" : "",
    "resolvers" : [ "bioproject" ],
    "forceResolver" : false,
    "type" : "",
    "forceType" : false,
    "virtual" : false,
    "hidden" : false,
    "automatic" : false,
    "sticky" : false
  }, {
    "ref" : "proj:uniprot_proteome_id",
    "name" : "UniProt proteome accession",
    "alternateNames" : [ ],
    "descr" : "Accession(s) of the entry in UniProt Proteomes.",
    "suffix" : "",
    "resolvers" : [ ],
    "forceResolver" : false,
    "type" : "",
    "forceType" : false,
    "virtual" : false,
    "hidden" : false,
    "automatic" : false,
    "sticky" : false
  }, {
    "ref" : "quality:sw",
    "name" : "Quality assessment software",
    "alternateNames" : [ ],
    "descr" : "Quality assessment program(s) used for assessing the quality of the genome.",
    "suffix" : "",
    "resolvers" : [ "biotools" ],
    "forceResolver" : false,
    "template" : "{quality:sw_name}§{quality:sw_name@_iri} > {quality:sw_release}",
    "type" : "",
    "forceType" : false,
    "virtual" : true,
    "hidden" : false,
    "automatic" : false,
    "sticky" : false
  }, {
    "ref" : "quality:sw_name",
    "name" : "Quality assessment tool",
    "alternateNames" : [ ],
    "descr" : "Tool used for assessing the quality of the genome.",
    "suffix" : "",
    "resolvers" : [ "biotools" ],
    "forceResolver" : false,
    "type" : "cat",
    "forceType" : false,
    "virtual" : false,
    "hidden" : false,
    "automatic" : false,
    "sticky" : false
  }, {
    "ref" : "quality:sw_release",
    "name" : "Quality assessment tool version",
    "alternateNames" : [ ],
    "descr" : "Quality assessment tool version",
    "suffix" : "",
    "resolvers" : [ ],
    "forceResolver" : false,
    "type" : "",
    "forceType" : false,
    "virtual" : false,
    "hidden" : false,
    "automatic" : false,
    "sticky" : false
  }, {
    "ref" : "secmet:antismash_clusters",
    "name" : "antiSMASH clusters",
    "alternateNames" : [ ],
    "descr" : "List of most similar known clusters found by antiSMASH against MIBiG (Minimum Information about a Biosynthetic Gene cluster) and associated coverage percentage against the hit.",
    "suffix" : "",
    "resolvers" : [ "biotools" ],
    "forceResolver" : false,
    "type" : "cat",
    "forceType" : false,
    "virtual" : false,
    "hidden" : false,
    "automatic" : false,
    "sticky" : false
  }, {
    "ref" : "secmet:antismash_types",
    "name" : "antiSMASH types",
    "alternateNames" : [ ],
    "descr" : "Cluster types predicted by antiSMASH and how many there is in total for the genome.",
    "suffix" : "",
    "resolvers" : [ "biotools" ],
    "forceResolver" : false,
    "type" : "cat",
    "forceType" : false,
    "virtual" : false,
    "hidden" : false,
    "automatic" : false,
    "sticky" : false
  }, {
    "ref" : "secmet:sw",
    "name" : "antiSMASH software",
    "alternateNames" : [ ],
    "descr" : "antiSHMAH program that was used.",
    "suffix" : "",
    "resolvers" : [ "biotools" ],
    "forceResolver" : false,
    "template" : "{secmet:sw_name}§{secmet:sw_name@_iri} > {secmet:sw_release}",
    "type" : "",
    "forceType" : false,
    "virtual" : true,
    "hidden" : false,
    "automatic" : false,
    "sticky" : false
  }, {
    "ref" : "secmet:sw_name",
    "name" : "antiSMASH tool",
    "alternateNames" : [ ],
    "descr" : "antiSMASH name.",
    "suffix" : "",
    "resolvers" : [ ],
    "forceResolver" : false,
    "type" : "",
    "forceType" : false,
    "virtual" : false,
    "hidden" : false,
    "automatic" : false,
    "sticky" : false
  }, {
    "ref" : "secmet:sw_release",
    "name" : "antiSMASH tool version",
    "alternateNames" : [ ],
    "descr" : "antiSMASH version.",
    "suffix" : "",
    "resolvers" : [ ],
    "forceResolver" : false,
    "type" : "",
    "forceType" : false,
    "virtual" : false,
    "hidden" : false,
    "automatic" : false,
    "sticky" : false
  }, {
    "ref" : "seq:center",
    "name" : "Sequencing center",
    "alternateNames" : [ ],
    "descr" : "Sequencing center who performed the sequencing of the sample.",
    "suffix" : "",
    "resolvers" : [ ],
    "forceResolver" : false,
    "type" : "cat",
    "forceType" : false,
    "virtual" : false,
    "hidden" : false,
    "automatic" : false,
    "sticky" : false
  }, {
    "ref" : "seq:depth",
    "name" : "Sequencing depth",
    "alternateNames" : [ ],
    "descr" : "Theoretical fold-coverage in relation to the shotgun sequencing runs which the data is based on.",
    "suffix" : "x",
    "resolvers" : [ ],
    "forceResolver" : false,
    "type" : "num",
    "forceType" : false,
    "virtual" : false,
    "hidden" : false,
    "automatic" : false,
    "sticky" : false
  }, {
    "ref" : "seq:method",
    "name" : "Sequencing method",
    "alternateNames" : [ ],
    "descr" : "Sequencing method(s) used.",
    "suffix" : "",
    "resolvers" : [ ],
    "forceResolver" : false,
    "type" : "cat",
    "forceType" : false,
    "virtual" : false,
    "hidden" : false,
    "automatic" : false,
    "sticky" : false
  }, {
    "ref" : "tax:class",
    "name" : "NCBI Class",
    "alternateNames" : [ ],
    "descr" : "NCBI taxonomy level for class.",
    "suffix" : "",
    "resolvers" : [ "taxonomy" ],
    "forceResolver" : false,
    "template" : "{tax:organism@class}<ECO:0000313>{tax:organism@_id}",
    "type" : "cat",
    "forceType" : false,
    "virtual" : false,
    "hidden" : false,
    "automatic" : false,
    "sticky" : false
  }, {
    "ref" : "tax:family",
    "name" : "NCBI Family",
    "alternateNames" : [ ],
    "descr" : "NCBI taxonomy level for family.",
    "suffix" : "",
    "resolvers" : [ "taxonomy" ],
    "forceResolver" : false,
    "template" : "{tax:organism@family}<ECO:0000313>{tax:organism@_id}",
    "type" : "cat",
    "forceType" : false,
    "virtual" : false,
    "hidden" : false,
    "automatic" : false,
    "sticky" : false
  }, {
    "ref" : "tax:fastani_ani",
    "name" : "GTDB reference ANI",
    "alternateNames" : [ ],
    "descr" : "The ANI (average nucleotide identity) value calculated between the subject genome and the reference genome.",
    "suffix" : "%",
    "resolvers" : [ ],
    "forceResolver" : false,
    "type" : "",
    "forceType" : false,
    "virtual" : false,
    "hidden" : false,
    "automatic" : false,
    "sticky" : false
  }, {
    "ref" : "tax:fastani_ref",
    "name" : "GTDB reference genome",
    "alternateNames" : [ ],
    "descr" : "The reference genome found closest to the subject with an ANI (average nucleotide identity) value.",
    "suffix" : "",
    "resolvers" : [ "gtdb" ],
    "forceResolver" : false,
    "type" : "",
    "forceType" : false,
    "virtual" : false,
    "hidden" : false,
    "automatic" : false,
    "sticky" : false
  }, {
    "ref" : "tax:genus",
    "name" : "NCBI Genus",
    "alternateNames" : [ ],
    "descr" : "NCBI taxonomy level for genus.",
    "suffix" : "",
    "resolvers" : [ "taxonomy" ],
    "forceResolver" : false,
    "template" : "{tax:organism@genus}<ECO:0000313>{tax:organism@_id}",
    "type" : "cat",
    "forceType" : false,
    "virtual" : false,
    "hidden" : false,
    "automatic" : false,
    "sticky" : false
  }, {
    "ref" : "tax:gtdb_classification",
    "name" : "GTDB Taxon Lineage Names",
    "alternateNames" : [ ],
    "descr" : "Complete lineage to the most specific GTDB taxon of the organism.",
    "suffix" : "",
    "resolvers" : [ "taxonomy" ],
    "forceResolver" : false,
    "type" : "cat",
    "forceType" : false,
    "virtual" : false,
    "hidden" : false,
    "automatic" : false,
    "sticky" : false
  }, {
    "ref" : "tax:kingdom",
    "name" : "NCBI Kingdom",
    "alternateNames" : [ ],
    "descr" : "NCBI taxonomy level for kingdom.",
    "suffix" : "",
    "resolvers" : [ "taxonomy" ],
    "forceResolver" : false,
    "template" : "{tax:organism@kingdom}<ECO:0000313>{tax:organism@_id}",
    "type" : "cat",
    "forceType" : false,
    "virtual" : false,
    "hidden" : false,
    "automatic" : false,
    "sticky" : false
  }, {
    "ref" : "tax:ncbi",
    "name" : "NCBI taxon",
    "alternateNames" : [ ],
    "descr" : "NCBI taxonomy lineage",
    "suffix" : "",
    "resolvers" : [ ],
    "forceResolver" : false,
    "template" : "{tax:kingdom}§{tax:kingdom@_iri} | {tax:phylum}§{tax:phylum@_iri} | {tax:class}§{tax:class@_iri} | {tax:order}§{tax:order@_iri} | {tax:family}§{tax:family@_iri} | {tax:genus§{tax:genus@_iri} | {tax:species}§{tax:species@_iri}",
    "type" : "",
    "forceType" : false,
    "virtual" : true,
    "hidden" : false,
    "automatic" : false,
    "sticky" : false
  }, {
    "ref" : "tax:order",
    "name" : "NCBI Order",
    "alternateNames" : [ ],
    "descr" : "NCBI taxonomy level for order.",
    "suffix" : "",
    "resolvers" : [ "taxonomy" ],
    "forceResolver" : false,
    "template" : "{tax:organism@order}<ECO:0000313>{tax:organism@_id}",
    "type" : "cat",
    "forceType" : false,
    "virtual" : false,
    "hidden" : false,
    "automatic" : false,
    "sticky" : false
  }, {
    "ref" : "tax:organism",
    "name" : "Organism",
    "alternateNames" : [ ],
    "descr" : "The most descriptive organism name for this sample.",
    "suffix" : "",
    "resolvers" : [ "taxonomy" ],
    "forceResolver" : true,
    "type" : "acc",
    "forceType" : false,
    "virtual" : false,
    "hidden" : false,
    "automatic" : false,
    "sticky" : false
  }, {
    "ref" : "tax:phylum",
    "name" : "NCBI Phylum",
    "alternateNames" : [ ],
    "descr" : "NCBI taxonomy level for phylum.",
    "suffix" : "",
    "resolvers" : [ "taxonomy" ],
    "forceResolver" : false,
    "template" : "{tax:organism@phylum}<ECO:0000313>{tax:organism@_id}",
    "type" : "cat",
    "forceType" : false,
    "virtual" : false,
    "hidden" : false,
    "automatic" : false,
    "sticky" : false
  }, {
    "ref" : "tax:species",
    "name" : "NCBI Species",
    "alternateNames" : [ ],
    "descr" : "NCBI taxonomy level for species.",
    "suffix" : "",
    "resolvers" : [ "taxonomy" ],
    "forceResolver" : false,
    "template" : "{tax:organism@species}<ECO:0000313>{tax:organism@_id}",
    "type" : "cat",
    "forceType" : false,
    "virtual" : false,
    "hidden" : false,
    "automatic" : false,
    "sticky" : false
  }, {
    "ref" : "tax:strain",
    "name" : "Strain",
    "alternateNames" : [ ],
    "descr" : "Microbial or eukaryotic strain name.",
    "suffix" : "",
    "resolvers" : [ "taxonomy" ],
    "forceResolver" : false,
    "type" : "cat",
    "forceType" : false,
    "virtual" : false,
    "hidden" : false,
    "automatic" : false,
    "sticky" : false
  }, {
    "ref" : "tax:sw",
    "name" : "GTDB-Tk software",
    "alternateNames" : [ ],
    "descr" : "GTDB-Tk program that was used.",
    "suffix" : "",
    "resolvers" : [ "biotools" ],
    "forceResolver" : false,
    "template" : "{tax:sw_name}§{tax:sw_name@_iri} > {tax:sw_release}",
    "type" : "",
    "forceType" : false,
    "virtual" : true,
    "hidden" : false,
    "automatic" : false,
    "sticky" : false
  }, {
    "ref" : "tax:sw_name",
    "name" : "GTDB-Tk software name",
    "alternateNames" : [ ],
    "descr" : "GTDB-Tk software name.",
    "suffix" : "",
    "resolvers" : [ "biotools" ],
    "forceResolver" : false,
    "type" : "cat",
    "forceType" : false,
    "virtual" : false,
    "hidden" : false,
    "automatic" : false,
    "sticky" : false
  }, {
    "ref" : "tax:sw_release",
    "name" : "GTDB-Tk software version",
    "alternateNames" : [ ],
    "descr" : "GTDB-Tk software version.",
    "suffix" : "",
    "resolvers" : [ ],
    "forceResolver" : false,
    "type" : "",
    "forceType" : false,
    "virtual" : false,
    "hidden" : false,
    "automatic" : false,
    "sticky" : false
  } ],
  "customResolvers" : [ {
    "prefix" : "bacdive",
    "regexp" : "^[0-9]+$",
    "kvp" : {
      "_iri" : "https://identifiers.org/bacdive:{id}"
    }
  }, {
    "prefix" : "bioproject",
    "regexp" : "^PRJ[DEN][A-Z]\\d+$",
    "kvp" : {
      "_iri" : "https://identifiers.org/ebi/bioproject:{id}"
    }
  }, {
    "prefix" : "biosample",
    "regexp" : "^SAM[NED][A-Z]?(\\d+)$",
    "kvp" : {
      "_iri" : "https://identifiers.org/ebi/biosample:{id}",
      "raw_id" : "{1}"
    }
  }, {
    "prefix" : "biotools",
    "regexp" : "^[-A-Za-z0-9\\_]*$",
    "kvp" : {
      "_iri" : "https://identifiers.org/biotools:{id}"
    }
  }, {
    "prefix" : "doi",
    "regexp" : "^\\d{2}\\.\\d{4}\\S*$",
    "kvp" : {
      "_iri" : "https://identifiers.org/doi:{id}"
    }
  }, {
    "prefix" : "eco",
    "regexp" : "^\\d{7}$",
    "kvp" : {
      "_iri" : "https://identifiers.org/ECO:{id}"
    },
    "ebiOlsBaseUri" : "http://purl.obolibrary.org/obo/ECO_"
  }, {
    "prefix" : "ena.embl",
    "regexp" : "^([A-Z]+[0-9]+)(?:\\.\\d+)?$",
    "kvp" : {
      "_iri" : "https://identifiers.org/ena.embl:{id}",
      "raw_id" : "{1}"
    }
  }, {
    "prefix" : "envo",
    "regexp" : "^\\d{7,8}$",
    "kvp" : {
      "_iri" : "https://identifiers.org/ENVO:{id}"
    },
    "ebiOlsBaseUri" : "http://purl.obolibrary.org/obo/ENVO_"
  }, {
    "prefix" : "gaz",
    "regexp" : "[-\\w][^{}\\s]*",
    "kvp" : {
      "_iri" : "https://www.ebi.ac.uk/ols/ontologies/gaz/terms?iri=http://purl.obolibrary.org/obo/GAZ_{id}"
    },
    "ebiOlsBaseUri" : "http://purl.obolibrary.org/obo/GAZ_"
  }, {
    "prefix" : "gmap",
    "regexp" : "[-\\w][^{}\\s]*",
    "kvp" : { }
  }, {
    "prefix" : "gtdb",
    "regexp" : "[-\\w][^{}\\s]*",
    "kvp" : {
      "_iri" : "https://gtdb.ecogenomic.org/genomes?gid={id}"
    }
  }, {
    "prefix" : "insdc.gca",
    "regexp" : "^GC[AF]_\\d{9}\\.\\d+$",
    "kvp" : {
      "_iri" : "https://identifiers.org/insdc.gca:{id}"
    }
  }, {
    "prefix" : "insdc.sra",
    "regexp" : "^[SED]R[APRSXZ]\\d+$",
    "kvp" : {
      "_iri" : "https://identifiers.org/insdc.sra:{id}"
    }
  }, {
    "prefix" : "itsonedb",
    "regexp" : "[-\\w][^{}\\s]*",
    "kvp" : {
      "_iri" : "http://itsonedb-api.cloud.ba.infn.it:8080/api/accession/{id}"
    }
  }, {
    "prefix" : "mmp.saldb",
    "regexp" : "^MMP\\d+(?:\\.\\d+)?$",
    "kvp" : {
      "_iri" : "https://mmp2.sfb.uit.no/{dsName}/records/{id}"
    }
  }, {
    "prefix" : "mrgid",
    "regexp" : "[-\\w][^{}\\s]*",
    "kvp" : { }
  }, {
    "prefix" : "ncbi.assembly",
    "regexp" : "[-\\w][^{}\\s]*",
    "kvp" : {
      "_iri" : "https://www.ncbi.nlm.nih.gov/assembly/{id}"
    }
  }, {
    "prefix" : "ncbi.nuccore",
    "regexp" : "[-\\w][^{}\\s]*",
    "kvp" : {
      "_iri" : "https://www.ncbi.nlm.nih.gov/nuccore/{id}"
    }
  }, {
    "prefix" : "orcid",
    "regexp" : "^\\d{4}-\\d{4}-\\d{4}-\\d{3}(?:\\d|X)$",
    "kvp" : {
      "_iri" : "https://identifiers.org/orcid:{id}"
    }
  }, {
    "prefix" : "pmc",
    "regexp" : "PMC\\d+",
    "kvp" : {
      "_iri" : "https://identifiers.org/pmc:{id}"
    }
  }, {
    "prefix" : "pubmed",
    "regexp" : "^\\d+$",
    "kvp" : {
      "_iri" : "https://identifiers.org/pubmed:{id}"
    }
  }, {
    "prefix" : "resource_sequence",
    "regexp" : "[-\\w][^{}\\s]*",
    "kvp" : {
      "+modes" : "merged",
      "+key:assembly" : "/disk/{dsName}/genomes/{id}/assembly.fa",
      "+key:cds" : "/disk/{dsName}/genomes/{id}/cds.fna",
      "+key:protein" : "/disk/{dsName}/genomes/{id}/protein.faa"
    }
  }, {
    "prefix" : "taxonomy",
    "regexp" : "^\\d+$",
    "kvp" : {
      "_iri" : "https://identifiers.org/taxonomy:{id}"
    }
  } ],
  "customTypes" : [ {
    "ref" : "cat:enum:analysis_proj_type",
    "kvp" : {
      "terms" : "Single amplified genome (SAG)|Whole genome amplification (WGA)|Metagenome assembled genome (MAG)|Whole genome sequencing (WGS)|NA"
    }
  }, {
    "ref" : "cat:enum:boolean",
    "kvp" : {
      "terms" : "Yes|No|NA"
    }
  }, {
    "ref" : "cat:enum:cell_shape",
    "kvp" : {
      "terms" : "Bacilli (Rod)|Cocci (Spherical)|Spirilla (Spiral)|Coccobacilli (Elongated coccal)|Filamentous (Long threads)|Vibrios (Slightly curved rod)|Fusobacteria (Spindle)|Square Shaped|Curved Shaped|Tailed|Oval|NA"
    }
  }, {
    "ref" : "cat:enum:env_package",
    "kvp" : {
      "terms" : "Air||Host-associated|Microbial mat/biofilm|Misc environment|Plant-associated|Sediment|Soil|Wastewater/sludge|Water"
    }
  }, {
    "ref" : "cat:enum:gen_status",
    "kvp" : {
      "terms" : "Finished|High Quality|Near Complete|Medium Quality|Low Quality|Very Low Quality"
    }
  }, {
    "ref" : "cat:enum:gram_stain",
    "kvp" : {
      "terms" : "Positive|Negative|NA"
    }
  }, {
    "ref" : "cat:enum:halo_tol",
    "kvp" : {
      "terms" : "Halophilic|Halotolerant|Non Halophilic|Moderate Halophilic|Extreme Halophilic|Euryhaline|Stenohaline|NA"
    }
  }, {
    "ref" : "cat:enum:investigation_type",
    "kvp" : {
      "terms" : "Bacteria_Archaea|Eukaryote|Metagenome|Mimarks-specimen|Mimarks-survey|Organelle|Plasmid|Virus"
    }
  }, {
    "ref" : "cat:enum:oxygen_req",
    "kvp" : {
      "terms" : "Aerobic|Microaerophilic|Facultative|Anaerobic|NA"
    }
  }, {
    "ref" : "cat:enum:sex",
    "kvp" : {
      "terms" : "Male|Female|Neuter|Hermaphrodite|Not determined|NA"
    }
  }, {
    "ref" : "cat:enum:temp_range",
    "kvp" : {
      "terms" : "Cryophilic|Psychrophilic|Psychrotolerant|Mesophilic|Thermophilic|Hyperthermophilic|NA"
    }
  }, {
    "ref" : "cat:geo:world",
    "kvp" : {
      "topojson" : "/geo/countries.topojson",
      "projection" : "naturalEarth1"
    }
  } ]
}